가공하지 않은 2017년도 표준공시지가 — land2017_raw • krlandprice
…
건물용도(대)허가 받은 건물의 용도

정격속도(m/s)승강기가 움직일 수 있는 한계 속도

대수설치된 승강기의 대수

    Source

    국토교통부(공공데이터 포털),
 https://www.data.go.kr/dataset/15004246/fileData.do

    Examples

  land2017_raw
#> # A tibble: 500,000 x 23
#>    일련번호 시군구 읍면동리 지번구분 본번지 부번지     시도명 시군구명  읍면
#>       <int>  <int>    <int>    <int>  <int>  <int>      <chr>    <chr> <chr>
#>  1        1  11110    10100        1      3     52 서울특별시   종로구  <NA>
#>  2        2  11110    10100        1      4     15 서울특별시   종로구  <NA>
#>  3        3  11110    10100        1      8      9 서울특별시   종로구  <NA>
#>  4        4  11110    10100        1     15     12 서울특별시   종로구  <NA>
#>  5        5  11110    10100        1     15     13 서울특별시   종로구  <NA>
#>  6        6  11110    10100        1     15     32 서울특별시   종로구  <NA>
#>  7        7  11110    10100        1     15     50 서울특별시   종로구  <NA>
#>  8        8  11110    10100        1     30     15 서울특별시   종로구  <NA>
#>  9        9  11110    10100        1     39      3 서울특별시   종로구  <NA>
#> 10       10  11110    10100        1     50     31 서울특별시   종로구  <NA>
#> # ... with 499,990 more rows, and 14 more variables: 동리 <chr>, 지번 <chr>,
#> #   지목 <chr>, 면적 <dbl>, 용도지역1 <chr>, 용도지역2 <chr>, 이용상황 <chr>,
#> #   주위환경 <chr>, 지세명 <chr>, 형상명 <chr>, 도로교통 <chr>, 공시지가 <int>,
#> #   지리적위치1 <chr>, 지리적위치2 <chr>
…
